pdimg_images — pdimg_images • pdfimager
…
# number of images doesn't match number of rows of metadata
## so we fix internally by removing duplicate files for same image
h <- system.file("examples/SanyalEtal2018.pdf", package="pdfimager")
pdimg_images(h)
#> [[1]]
#> # A tibble: 52 × 17
#>    path      page   num type  width height color  comp   bpc enc   interp object
#>    <chr>    <int> <int> <chr> <int>  <int> <chr> <int> <int> <chr> <chr>   <int>
#>  1 /var/fo…     1     0 image   486    221 cmyk      4     8 jpeg  no        227
#>  2 /var/fo…     1     1 sten…  2744    974 -         1     1 ccitt no        229
#>  3 /var/fo…     1     2 image   178    148 cmyk      4     8 jpeg  no        231
#>  4 /var/fo…     5     3 image   980    946 rgb       3     8 jpeg  no         36
#>  5 /var/fo…     6     4 image    82     76 index     1     8 image no         87
#>  6 /var/fo…     6     5 image    82     76 index     1     8 image no         88
#>  7 /var/fo…     6     6 image    82     76 index     1     8 image no         98
#>  8 /var/fo…     6     7 image    82     76 index     1     8 image no        104
#>  9 /var/fo…     6     8 image    82     76 index     1     8 image no        118
#> 10 /var/fo…     6     9 image    82     76 index     1     8 image no        124
#> # ℹ 42 more rows
#> # ℹ 5 more variables: ID <int>, x.ppi <int>, y.ppi <int>, size <chr>,
#> #   ratio <chr>
…
